UART/NewFile1.csv

X,CH1,Start,Increment,
Sequence,Volt,-7.120000e-04,2.000000e-06
0,4.20e+00,
1,4.80e+00,
2,4.20e+00,
3,4.80e+00,
4,4.20e+00,
5,4.60e+00,
6,4.20e+00,
7,4.80e+00,
8,4.20e+00,
9,4.60e+00,
10,4.40e+00,
11,4.20e+00,
12,4.20e+00,
13,4.80e+00,
14,4.40e+00,
15,4.20e+00,
16,4.80e+00,
17,4.20e+00,
18,4.20e+00,
19,4.60e+00,
20,4.60e+00,
21,4.20e+00,
22,4.20e+00,
23,4.60e+00,
24,4.40e+00,
25,4.20e+00,
26,4.40e+00,
27,4.20e+00,
28,4.20e+00,
29,4.80e+00,
30,4.20e+00,
31,4.80e+00,
32,4.20e+00,
33,4.80e+00,
34,4.20e+00,
35,4.60e+00,
36,4.20e+00,
37,4.80e+00,
38,4.20e+00,
39,4.80e+00,
40,4.20e+00,
41,4.60e+00,
42,4.20e+00,
43,4.80e+00,
44,4.40e+00,
45,4.20e+00,
46,4.20e+00,
47,4.80e+00,
48,4.80e+00,
49,4.20e+00,
50,4.20e+00,
51,4.80e+00,
52,4.20e+00,
53,4.60e+00,
54,4.60e+00,
55,4.20e+00,
56,4.20e+00,
57,4.80e+00,
58,4.20e+00,
59,4.80e+00,
60,4.20e+00,
61,4.80e+00,
62,4.80e+00,
63,4.20e+00,
64,4.20e+00,
65,4.80e+00,
66,4.20e+00,
67,4.80e+00,
68,4.60e+00,
69,4.20e+00,
70,4.40e+00,
71,4.20e+00,
72,4.20e+00,
73,4.80e+00,
74,4.20e+00,
75,4.60e+00,
76,4.20e+00,
77,4.80e+00,
78,4.20e+00,
79,4.80e+00,
80,4.20e+00,
81,4.80e+00,
82,4.20e+00,
83,4.60e+00,
84,4.20e+00,
85,4.80e+00,
86,4.20e+00,
87,4.80e+00,
88,4.20e+00,
89,4.80e+00,
90,4.20e+00,
91,4.80e+00,
92,4.20e+00,
93,4.60e+00,
94,4.20e+00,
95,4.60e+00,
96,4.20e+00,
97,4.80e+00,
98,4.60e+00,
99,4.20e+00,
100,4.20e+00,
101,4.80e+00,
102,4.60e+00,
103,4.20e+00,
104,4.20e+00,
105,4.80e+00,
106,4.20e+00,
107,4.80e+00,
108,4.20e+00,
109,4.60e+00,
110,4.60e+00,
111,4.20e+00,
112,4.20e+00,
113,4.80e+00,
114,4.20e+00,
115,4.80e+00,
116,4.20e+00,
117,4.80e+00,
118,4.20e+00,
119,4.80e+00,
120,4.20e+00,
121,4.80e+00,
122,4.20e+00,
123,4.80e+00,
124,4.20e+00,
125,4.80e+00,
126,4.20e+00,
127,4.60e+00,
128,4.20e+00,
129,4.80e+00,
130,4.20e+00,
131,4.80e+00,
132,4.20e+00,
133,4.80e+00,
134,4.80e+00,
135,4.20e+00,
136,4.20e+00,
137,4.60e+00,
138,4.20e+00,
139,4.80e+00,
140,4.40e+00,
141,4.20e+00,
142,4.20e+00,
143,4.60e+00,
144,4.20e+00,
145,4.80e+00,
146,4.20e+00,
147,4.80e+00,
148,4.20e+00,
149,4.80e+00,
150,4.40e+00,
151,4.20e+00,
152,4.40e+00,
153,4.20e+00,
154,4.20e+00,
155,4.60e+00,
156,4.60e+00,
157,4.20e+00,
158,4.20e+00,
159,4.80e+00,
160,4.20e+00,
161,4.60e+00,
162,4.80e+00,
163,4.20e+00,
164,4.20e+00,
165,4.60e+00,
166,4.40e+00,
167,4.20e+00,
168,4.40e+00,
169,4.20e+00,
170,4.20e+00,
171,4.80e+00,
172,4.40e+00,
173,4.20e+00,
174,4.20e+00,
175,4.80e+00,
176,4.20e+00,
177,4.80e+00,
178,4.80e+00,
179,4.20e+00,
180,4.20e+00,
181,4.80e+00,
182,4.20e+00,
183,4.80e+00,
184,4.20e+00,
185,4.80e+00,
186,4.20e+00,
187,4.80e+00,
188,4.20e+00,
189,4.80e+00,
190,4.20e+00,
191,4.80e+00,
192,4.20e+00,
193,4.80e+00,
194,4.80e+00,
195,4.20e+00,
196,4.20e+00,
197,4.60e+00,
198,4.20e+00,
199,4.80e+00,
200,4.20e+00,
201,4.60e+00,
202,4.20e+00,
203,4.60e+00,
204,4.20e+00,
205,4.60e+00,
206,4.20e+00,
207,4.80e+00,
208,4.20e+00,
209,4.60e+00,
210,4.20e+00,
211,4.60e+00,
212,4.20e+00,
213,4.80e+00,
214,4.20e+00,
215,4.60e+00,
216,4.60e+00,
217,4.20e+00,
218,4.20e+00,
219,4.80e+00,
220,4.20e+00,
221,4.80e+00,
222,4.40e+00,
223,4.20e+00,
224,4.20e+00,
225,4.80e+00,
226,4.20e+00,
227,4.80e+00,
228,4.20e+00,
229,4.80e+00,
230,4.20e+00,
231,4.80e+00,
232,4.20e+00,
233,4.60e+00,
234,4.20e+00,
235,4.80e+00,
236,4.20e+00,
237,4.80e+00,
238,4.20e+00,
239,4.80e+00,
240,4.20e+00,
241,4.80e+00,
242,4.20e+00,
243,4.80e+00,
244,4.20e+00,
245,4.80e+00,
246,4.80e+00,
247,4.20e+00,
248,4.20e+00,
249,4.80e+00,
250,4.20e+00,
251,4.80e+00,
252,4.20e+00,
253,4.60e+00,
254,4.20e+00,
255,4.80e+00,
256,4.80e+00,
257,4.20e+00,
258,4.20e+00,
259,4.80e+00,
260,4.20e+00,
261,4.80e+00,
262,4.20e+00,
263,4.60e+00,
264,4.20e+00,
265,4.60e+00,
266,4.20e+00,
267,4.60e+00,
268,4.20e+00,
269,4.80e+00,
270,4.40e+00,
271,4.20e+00,
272,4.20e+00,
273,4.80e+00,
274,4.20e+00,
275,4.80e+00,
276,4.20e+00,
277,4.80e+00,
278,4.20e+00,
279,4.80e+00,
280,4.20e+00,
281,4.80e+00,
282,4.20e+00,
283,4.80e+00,
284,4.20e+00,
285,4.80e+00,
286,4.80e+00,
287,4.20e+00,
288,4.20e+00,
289,4.80e+00,
290,4.20e+00,
291,4.80e+00,
292,4.20e+00,
293,4.80e+00,
294,4.20e+00,
295,4.80e+00,
296,4.20e+00,
297,4.80e+00,
298,4.20e+00,
299,4.80e+00,
300,4.20e+00,
301,4.80e+00,
302,4.20e+00,
303,4.80e+00,
304,4.20e+00,
305,4.60e+00,
306,4.20e+00,
307,4.80e+00,
308,4.20e+00,
309,4.80e+00,
310,4.20e+00,
311,4.80e+00,
312,4.20e+00,
313,4.60e+00,
314,4.80e+00,
315,4.20e+00,
316,4.80e+00,
317,4.20e+00,
318,4.20e+00,
319,4.60e+00,
320,4.20e+00,
321,4.80e+00,
322,4.20e+00,
323,4.60e+00,
324,4.20e+00,
325,4.80e+00,
326,4.60e+00,
327,4.20e+00,
328,4.20e+00,
329,4.60e+00,
330,4.20e+00,
331,4.80e+00,
332,4.20e+00,
333,4.60e+00,
334,4.20e+00,
335,4.80e+00,
336,4.20e+00,
337,4.60e+00,
338,4.40e+00,
339,4.20e+00,
340,4.20e+00,
341,4.80e+00,
342,4.80e+00,
343,4.20e+00,
344,4.20e+00,
345,4.60e+00,
346,4.40e+00,
347,4.20e+00,
348,4.20e+00,
349,4.60e+00,
350,4.20e+00,
351,4.80e+00,
352,4.20e+00,
353,4.60e+00,
354,4.80e+00,
355,2.20e+00,
356,2.00e+00,
357,1.00e+00,
358,1.00e+00,
359,1.40e+00,
360,1.40e+00,
361,1.00e+00,
362,1.00e+00,
363,1.40e+00,
364,1.00e+00,
365,1.40e+00,
366,1.00e+00,
367,1.40e+00,
368,1.00e+00,
369,1.40e+00,
370,1.40e+00,
371,1.00e+00,
372,1.00e+00,
373,1.40e+00,
374,1.00e+00,
375,1.40e+00,
376,1.00e+00,
377,1.40e+00,
378,1.00e+00,
379,1.40e+00,
380,1.00e+00,
381,1.40e+00,
382,1.00e+00,
383,1.40e+00,
384,1.00e+00,
385,1.40e+00,
386,1.00e+00,
387,1.40e+00,
388,1.00e+00,
389,1.40e+00,
390,1.00e+00,
391,1.40e+00,
392,1.00e+00,
393,1.40e+00,
394,1.00e+00,
395,1.40e+00,
396,1.00e+00,
397,1.40e+00,
398,1.00e+00,
399,1.40e+00,
400,1.00e+00,
401,1.40e+00,
402,1.00e+00,
403,1.40e+00,
404,1.00e+00,
405,1.40e+00,
406,1.00e+00,
407,3.60e+00,
408,3.80e+00,
409,4.80e+00,
410,4.20e+00,
411,4.80e+00,
412,4.20e+00,
413,4.80e+00,
414,4.20e+00,
415,4.80e+00,
416,4.20e+00,
417,4.80e+00,
418,4.20e+00,
419,4.80e+00,
420,4.20e+00,
421,4.80e+00,
422,4.20e+00,
423,4.80e+00,
424,4.80e+00,
425,4.20e+00,
426,4.20e+00,
427,4.80e+00,
428,4.20e+00,
429,4.80e+00,
430,4.20e+00,
431,4.80e+00,
432,4.20e+00,
433,4.80e+00,
434,4.20e+00,
435,4.80e+00,
436,4.20e+00,
437,4.80e+00,
438,4.20e+00,
439,4.60e+00,
440,4.20e+00,
441,4.60e+00,
442,4.20e+00,
443,4.80e+00,
444,4.20e+00,
445,4.80e+00,
446,4.20e+00,
447,4.60e+00,
448,4.20e+00,
449,4.80e+00,
450,4.20e+00,
451,4.60e+00,
452,4.20e+00,
453,4.80e+00,
454,4.20e+00,
455,4.60e+00,
456,4.20e+00,
457,4.80e+00,
458,4.80e+00,
459,1.40e+00,
460,1.00e+00,
461,1.40e+00,
462,1.00e+00,
463,1.40e+00,
464,1.00e+00,
465,1.40e+00,
466,1.00e+00,
467,1.40e+00,
468,1.00e+00,
469,1.40e+00,
470,1.40e+00,
471,1.00e+00,
472,1.00e+00,
473,1.40e+00,
474,1.00e+00,
475,1.40e+00,
476,1.00e+00,
477,1.40e+00,
478,1.00e+00,
479,1.40e+00,
480,1.00e+00,
481,1.40e+00,
482,1.00e+00,
483,1.40e+00,
484,1.00e+00,
485,1.40e+00,
486,1.00e+00,
487,1.40e+00,
488,1.00e+00,
489,1.40e+00,
490,1.40e+00,
491,1.00e+00,
492,1.40e+00,
493,1.00e+00,
494,1.00e+00,
495,1.40e+00,
496,1.00e+00,
497,1.40e+00,
498,1.00e+00,
499,1.40e+00,
500,1.00e+00,
501,1.40e+00,
502,1.00e+00,
503,1.40e+00,
504,1.00e+00,
505,1.40e+00,
506,1.00e+00,
507,1.40e+00,
508,1.00e+00,
509,1.40e+00,
510,1.00e+00,
511,1.40e+00,
512,1.00e+00,
513,1.40e+00,
514,1.00e+00,
515,1.40e+00,
516,1.00e+00,
517,1.40e+00,
518,1.00e+00,
519,1.40e+00,
520,1.00e+00,
521,1.40e+00,
522,1.00e+00,
523,1.40e+00,
524,1.00e+00,
525,1.40e+00,
526,1.00e+00,
527,1.40e+00,
528,1.00e+00,
529,1.40e+00,
530,1.40e+00,
531,1.00e+00,
532,1.40e+00,
533,1.00e+00,
534,1.00e+00,
535,1.40e+00,
536,1.00e+00,
537,1.40e+00,
538,1.00e+00,
539,1.40e+00,
540,1.00e+00,
541,1.40e+00,
542,1.00e+00,
543,1.40e+00,
544,1.40e+00,
545,1.00e+00,
546,1.00e+00,
547,1.40e+00,
548,1.00e+00,
549,1.40e+00,
550,1.00e+00,
551,1.40e+00,
552,1.00e+00,
553,1.40e+00,
554,1.00e+00,
555,1.40e+00,
556,1.40e+00,
557,1.00e+00,
558,1.40e+00,
559,1.00e+00,
560,1.00e+00,
561,1.40e+00,
562,1.00e+00,
563,1.40e+00,
564,1.00e+00,
565,1.40e+00,
566,1.00e+00,
567,1.40e+00,
568,1.00e+00,
569,1.40e+00,
570,1.00e+00,
571,1.40e+00,
572,1.00e+00,
573,1.40e+00,
574,1.00e+00,
575,1.40e+00,
576,1.00e+00,
577,1.40e+00,
578,1.00e+00,
579,1.40e+00,
580,1.40e+00,
581,1.00e+00,
582,1.00e+00,
583,1.40e+00,
584,1.00e+00,
585,1.40e+00,
586,1.40e+00,
587,1.00e+00,
588,1.00e+00,
589,1.40e+00,
590,1.00e+00,
591,1.40e+00,
592,1.00e+00,
593,1.40e+00,
594,1.00e+00,
595,1.40e+00,
596,1.00e+00,
597,1.40e+00,
598,1.00e+00,
599,1.40e+00,
600,1.00e+00,
601,1.40e+00,
602,1.00e+00,
603,1.40e+00,
604,1.00e+00,
605,1.40e+00,
606,1.40e+00,
607,1.00e+00,
608,1.00e+00,
609,1.40e+00,
610,1.00e+00,
611,1.40e+00,
612,1.40e+00,
613,1.00e+00,
614,1.00e+00,
615,4.80e+00,
616,4.80e+00,
617,4.20e+00,
618,4.20e+00,
619,4.80e+00,
620,4.20e+00,
621,4.80e+00,
622,4.20e+00,
623,4.80e+00,
624,4.20e+00,
625,4.60e+00,
626,4.20e+00,
627,4.80e+00,
628,4.20e+00,
629,4.80e+00,
630,4.20e+00,
631,4.80e+00,
632,4.20e+00,
633,4.80e+00,
634,4.60e+00,
635,4.20e+00,
636,4.80e+00,
637,4.20e+00,
638,4.20e+00,
639,4.80e+00,
640,4.20e+00,
641,4.60e+00,
642,4.80e+00,
643,4.20e+00,
644,4.80e+00,
645,4.20e+00,
646,4.20e+00,
647,4.80e+00,
648,4.20e+00,
649,4.60e+00,
650,4.20e+00,
651,4.60e+00,
652,4.60e+00,
653,4.20e+00,
654,4.20e+00,
655,4.80e+00,
656,4.20e+00,
657,4.80e+00,
658,4.20e+00,
659,4.80e+00,
660,4.20e+00,
661,4.80e+00,
662,4.20e+00,
663,4.80e+00,
664,4.20e+00,
665,4.80e+00,
666,4.20e+00,
667,4.80e+00,
668,4.20e+00,
669,4.80e+00,
670,4.20e+00,
671,4.80e+00,
672,4.80e+00,
673,4.20e+00,
674,4.80e+00,
675,4.20e+00,
676,4.80e+00,
677,4.20e+00,
678,4.20e+00,
679,4.80e+00,
680,4.20e+00,
681,4.80e+00,
682,4.20e+00,
683,4.80e+00,
684,4.20e+00,
685,4.80e+00,
686,4.80e+00,
687,4.20e+00,
688,4.80e+00,
689,4.20e+00,
690,4.20e+00,
691,4.80e+00,
692,4.20e+00,
693,4.80e+00,
694,4.20e+00,
695,4.80e+00,
696,4.20e+00,
697,4.60e+00,
698,4.20e+00,
699,4.80e+00,
700,4.80e+00,
701,4.20e+00,
702,4.20e+00,
703,4.80e+00,
704,4.20e+00,
705,4.80e+00,
706,4.20e+00,
707,4.60e+00,
708,4.20e+00,
709,4.60e+00,
710,4.20e+00,
711,4.80e+00,
712,4.20e+00,
713,4.80e+00,
714,4.20e+00,
715,4.80e+00,
716,4.20e+00,
717,4.60e+00,
718,4.80e+00,
719,1.20e+00,
720,1.40e+00,
721,1.00e+00,
722,1.40e+00,
723,1.00e+00,
724,1.00e+00,
725,1.40e+00,
726,1.00e+00,
727,1.40e+00,
728,1.00e+00,
729,1.40e+00,
730,1.00e+00,
731,1.40e+00,
732,1.40e+00,
733,1.00e+00,
734,1.00e+00,
735,1.40e+00,
736,1.00e+00,
737,1.40e+00,
738,1.00e+00,
739,1.40e+00,
740,1.00e+00,
741,1.40e+00,
742,1.00e+00,
743,1.40e+00,
744,1.00e+00,
745,1.40e+00,
746,1.00e+00,
747,1.40e+00,
748,1.00e+00,
749,1.40e+00,
750,1.00e+00,
751,1.40e+00,
752,1.00e+00,
753,1.40e+00,
754,1.00e+00,
755,1.40e+00,
756,1.40e+00,
757,1.00e+00,
758,1.00e+00,
759,1.40e+00,
760,1.00e+00,
761,1.40e+00,
762,1.00e+00,
763,1.40e+00,
764,1.00e+00,
765,1.40e+00,
766,1.00e+00,
767,1.40e+00,
768,1.00e+00,
769,1.40e+00,
770,1.00e+00,
771,1.40e+00,
772,1.00e+00,
773,1.40e+00,
774,1.00e+00,
775,1.40e+00,
776,1.00e+00,
777,1.40e+00,
778,1.40e+00,
779,1.00e+00,
780,1.00e+00,
781,1.40e+00,
782,1.00e+00,
783,1.40e+00,
784,1.00e+00,
785,1.40e+00,
786,1.40e+00,
787,1.00e+00,
788,1.00e+00,
789,1.40e+00,
790,1.40e+00,
791,1.00e+00,
792,1.00e+00,
793,1.40e+00,
794,1.40e+00,
795,1.00e+00,
796,1.00e+00,
797,1.40e+00,
798,1.40e+00,
799,1.00e+00,
800,1.00e+00,
801,1.40e+00,
802,1.00e+00,
803,1.40e+00,
804,1.00e+00,
805,1.40e+00,
806,1.40e+00,
807,1.00e+00,
808,1.00e+00,
809,1.40e+00,
810,1.40e+00,
811,1.00e+00,
812,1.00e+00,
813,1.40e+00,
814,1.00e+00,
815,1.40e+00,
816,1.00e+00,
817,1.40e+00,
818,1.00e+00,
819,1.40e+00,
820,1.00e+00,
821,1.40e+00,
822,1.00e+00,
823,4.80e+00,
824,4.80e+00,
825,4.20e+00,
826,4.20e+00,
827,4.60e+00,
828,4.20e+00,
829,4.80e+00,
830,4.20e+00,
831,4.80e+00,
832,4.20e+00,
833,4.80e+00,
834,4.20e+00,
835,4.80e+00,
836,4.80e+00,
837,4.20e+00,
838,4.80e+00,
839,4.20e+00,
840,4.20e+00,
841,4.80e+00,
842,4.20e+00,
843,4.80e+00,
844,4.20e+00,
845,4.80e+00,
846,4.80e+00,
847,4.20e+00,
848,4.80e+00,
849,4.20e+00,
850,4.80e+00,
851,4.20e+00,
852,4.20e+00,
853,4.80e+00,
854,4.80e+00,
855,4.20e+00,
856,4.80e+00,
857,4.20e+00,
858,4.80e+00,
859,4.20e+00,
860,4.20e+00,
861,4.80e+00,
862,4.20e+00,
863,4.80e+00,
864,4.20e+00,
865,4.80e+00,
866,4.20e+00,
867,4.80e+00,
868,4.20e+00,
869,4.80e+00,
870,4.20e+00,
871,4.80e+00,
872,4.20e+00,
873,4.80e+00,
874,4.20e+00,
875,4.80e+00,
876,4.20e+00,
877,4.80e+00,
878,4.20e+00,
879,4.80e+00,
880,4.20e+00,
881,4.80e+00,
882,4.20e+00,
883,4.60e+00,
884,4.20e+00,
885,4.60e+00,
886,4.20e+00,
887,4.80e+00,
888,4.80e+00,
889,4.20e+00,
890,4.20e+00,
891,4.80e+00,
892,4.80e+00,
893,4.20e+00,
894,4.80e+00,
895,4.20e+00,
896,4.20e+00,
897,4.80e+00,
898,4.80e+00,
899,4.20e+00,
900,4.20e+00,
901,4.80e+00,
902,4.20e+00,
903,4.80e+00,
904,4.20e+00,
905,4.80e+00,
906,4.80e+00,
907,4.20e+00,
908,4.80e+00,
909,4.20e+00,
910,4.80e+00,
911,4.20e+00,
912,4.20e+00,
913,4.80e+00,
914,4.80e+00,
915,4.20e+00,
916,4.80e+00,
917,4.20e+00,
918,4.20e+00,
919,4.80e+00,
920,4.20e+00,
921,4.80e+00,
922,4.80e+00,
923,4.20e+00,
924,4.20e+00,
925,4.80e+00,
926,4.20e+00,
927,4.80e+00,
928,4.20e+00,
929,4.80e+00,
930,4.20e+00,
931,4.80e+00,
932,4.20e+00,
933,4.80e+00,
934,4.20e+00,
935,4.60e+00,
936,4.20e+00,
937,4.80e+00,
938,4.20e+00,
939,4.60e+00,
940,4.20e+00,
941,4.80e+00,
942,4.20e+00,
943,4.80e+00,
944,4.20e+00,
945,4.80e+00,
946,4.20e+00,
947,4.80e+00,
948,4.80e+00,
949,4.20e+00,
950,4.20e+00,
951,4.80e+00,
952,4.20e+00,
953,4.80e+00,
954,4.80e+00,
955,4.20e+00,
956,4.20e+00,
957,4.80e+00,
958,4.20e+00,
959,4.80e+00,
960,4.20e+00,
961,4.80e+00,
962,4.20e+00,
963,4.80e+00,
964,4.80e+00,
965,4.20e+00,
966,4.80e+00,
967,4.20e+00,
968,4.20e+00,
969,4.80e+00,
970,4.20e+00,
971,4.80e+00,
972,4.20e+00,
973,4.80e+00,
974,4.80e+00,
975,4.20e+00,
976,4.20e+00,
977,4.80e+00,
978,4.20e+00,
979,4.80e+00,
980,4.20e+00,
981,4.80e+00,
982,4.20e+00,
983,4.80e+00,
984,4.20e+00,
985,4.80e+00,
986,4.20e+00,
987,4.80e+00,
988,4.20e+00,
989,4.80e+00,
990,4.80e+00,
991,4.20e+00,
992,4.20e+00,
993,4.80e+00,
994,4.20e+00,
995,4.80e+00,
996,4.20e+00,
997,4.80e+00,
998,4.20e+00,
999,4.60e+00,
1000,4.20e+00,
1001,4.80e+00,
1002,4.20e+00,
1003,4.80e+00,
1004,4.20e+00,
1005,4.60e+00,
1006,4.20e+00,
1007,4.60e+00,
1008,4.20e+00,
1009,4.80e+00,
1010,4.20e+00,
1011,4.80e+00,
1012,4.20e+00,
1013,4.80e+00,
1014,4.20e+00,
1015,4.80e+00,
1016,4.20e+00,
1017,4.60e+00,
1018,4.20e+00,
1019,4.80e+00,
1020,4.20e+00,
1021,4.80e+00,
1022,4.20e+00,
1023,4.80e+00,
1024,4.80e+00,
1025,4.20e+00,
1026,4.20e+00,
1027,4.80e+00,
1028,4.20e+00,
1029,4.80e+00,
1030,4.80e+00,
1031,4.20e+00,
1032,4.80e+00,
1033,4.20e+00,
1034,4.20e+00,
1035,4.80e+00,
1036,4.80e+00,
1037,4.20e+00,
1038,4.80e+00,
1039,4.20e+00,
1040,4.80e+00,
1041,4.20e+00,
1042,4.20e+00,
1043,4.80e+00,
1044,4.80e+00,
1045,4.20e+00,
1046,4.20e+00,
1047,4.80e+00,
1048,4.20e+00,
1049,4.80e+00,
1050,4.20e+00,
1051,4.80e+00,
1052,4.20e+00,
1053,4.80e+00,
1054,4.20e+00,
1055,4.80e+00,
1056,4.80e+00,
1057,4.20e+00,
1058,4.20e+00,
1059,4.80e+00,
1060,4.20e+00,
1061,4.80e+00,
1062,4.20e+00,
1063,4.60e+00,
1064,4.20e+00,
1065,4.80e+00,
1066,4.20e+00,
1067,4.60e+00,
1068,4.20e+00,
1069,4.80e+00,
1070,4.20e+00,
1071,4.80e+00,
1072,4.20e+00,
1073,4.60e+00,
1074,4.20e+00,
1075,4.80e+00,
1076,4.20e+00,
1077,4.80e+00,
1078,4.20e+00,
1079,4.80e+00,
1080,4.20e+00,
1081,4.80e+00,
1082,4.80e+00,
1083,4.20e+00,
1084,4.20e+00,
1085,4.80e+00,
1086,4.20e+00,
1087,4.80e+00,
1088,4.80e+00,
1089,4.20e+00,
1090,4.20e+00,
1091,4.80e+00,
1092,4.20e+00,
1093,4.80e+00,
1094,4.80e+00,
1095,4.20e+00,
1096,4.20e+00,
1097,4.80e+00,
1098,4.80e+00,
1099,4.20e+00,
1100,4.80e+00,
1101,4.20e+00,
1102,4.80e+00,
1103,4.20e+00,
1104,4.80e+00,
1105,4.20e+00,
1106,4.20e+00,
1107,4.80e+00,
1108,4.20e+00,
1109,4.80e+00,
1110,4.20e+00,
1111,4.80e+00,
1112,4.20e+00,
1113,4.80e+00,
1114,4.20e+00,
1115,4.80e+00,
1116,4.60e+00,
1117,4.20e+00,
1118,4.20e+00,
1119,4.60e+00,
1120,4.80e+00,
1121,4.20e+00,
1122,4.60e+00,
1123,4.20e+00,
1124,4.20e+00,
1125,4.80e+00,
1126,4.20e+00,
1127,4.80e+00,
1128,4.80e+00,
1129,4.20e+00,
1130,4.20e+00,
1131,4.60e+00,
1132,4.20e+00,
1133,4.80e+00,
1134,4.20e+00,
1135,4.80e+00,
1136,4.80e+00,
1137,4.20e+00,
1138,4.20e+00,
1139,4.80e+00,
1140,4.20e+00,
1141,4.80e+00,
1142,4.20e+00,
1143,4.80e+00,
1144,4.20e+00,
1145,4.80e+00,
1146,4.20e+00,
1147,4.80e+00,
1148,4.20e+00,
1149,4.80e+00,
1150,4.80e+00,
1151,4.20e+00,
1152,4.20e+00,
1153,4.80e+00,
1154,4.80e+00,
1155,4.20e+00,
1156,4.20e+00,
1157,4.80e+00,
1158,4.20e+00,
1159,4.80e+00,
1160,4.20e+00,
1161,4.80e+00,
1162,4.20e+00,
1163,4.80e+00,
1164,4.20e+00,
1165,4.80e+00,
1166,4.20e+00,
1167,4.80e+00,
1168,4.80e+00,
1169,4.20e+00,
1170,4.20e+00,
1171,4.80e+00,
1172,4.20e+00,
1173,4.80e+00,
1174,4.20e+00,
1175,4.60e+00,
1176,4.80e+00,
1177,4.20e+00,
1178,4.20e+00,
1179,4.60e+00,
1180,4.20e+00,
1181,4.80e+00,
1182,4.20e+00,
1183,4.80e+00,
1184,4.20e+00,
1185,4.80e+00,
1186,4.60e+00,
1187,4.20e+00,
1188,4.20e+00,
1189,4.80e+00,
1190,4.20e+00,
1191,4.60e+00,
1192,4.80e+00,
1193,4.20e+00,
1194,4.20e+00,
1195,4.60e+00,
1196,4.20e+00,
1197,4.80e+00,
1198,4.20e+00,
1199,4.80e+00,
